^C:\USERS\NICOB\DESKTOP\FOLDERS\KICKFLIPINTERNALPLZWORK\KICKFLIP 5.0\ANTIAIM.CPP|C:\USERS\NICOB\DESKTOP\FOLDERS\KICKFLIPINTERNALPLZWORK\KICKFLIP 5.0\BOXESP.CPP|C:\USERS\NICOB\DESKTOP\FOLDERS\KICKFLIPINTERNALPLZWORK\KICKFLIP 5.0\CLRRENDER.CPP|C:\USERS\NICOB\DESKTOP\FOLDERS\KICKFLIPINTERNALPLZWORK\KICKFLIP 5.0\CREATEMOVE.CPP|C:\USERS\NICOB\DESKTOP\FOLDERS\KICKFLIPINTERNALPLZWORK\KICKFLIP 5.0\D3DDRAW.CPP|C:\USERS\NICOB\DESKTOP\FOLDERS\KICKFLIPINTERNALPLZWORK\KICKFLIP 5.0\D3DENDSCENE.CPP|C:\USERS\NICOB\DESKTOP\FOLDERS\KICKFLIPINTERNALPLZWORK\KICKFLIP 5.0\D3DRESET.CPP|C:\USERS\NICOB\DESKTOP\FOLDERS\KICKFLIPINTERNALPLZWORK\KICKFLIP 5.0\DRAW.CPP|C:\USERS\NICOB\DESKTOP\FOLDERS\KICKFLIPINTERNALPLZWORK\KICKFLIP 5.0\DRAWMODELEXECUTE.CPP|C:\USERS\NICOB\DESKTOP\FOLDERS\KICKFLIPINTERNALPLZWORK\KICKFLIP 5.0\ESP.CPP|C:\USERS\NICOB\DESKTOP\FOLDERS\KICKFLIPINTERNALPLZWORK\KICKFLIP 5.0\FIREEVENTCLIENTSIDE.CPP|C:\USERS\NICOB\DESKTOP\FOLDERS\KICKFLIPINTERNALPLZWORK\KICKFLIP 5.0\FRAMESTAGENOTIFY.CPP|C:\USERS\NICOB\DESKTOP\FOLDERS\KICKFLIPINTERNALPLZWORK\KICKFLIP 5.0\GLOW.CPP|C:\USERS\NICOB\DESKTOP\FOLDERS\KICKFLIPINTERNALPLZWORK\KICKFLIP 5.0\HOOKS.CPP|C:\USERS\NICOB\DESKTOP\FOLDERS\KICKFLIPINTERNALPLZWORK\KICKFLIP 5.0\IINPUTSYSTEM.CPP|C:\USERS\NICOB\DESKTOP\FOLDERS\KICKFLIPINTERNALPLZWORK\KICKFLIP 5.0\IMATERIALSYSTEM.CPP|C:\USERS\NICOB\DESKTOP\FOLDERS\KICKFLIPINTERNALPLZWORK\KICKFLIP 5.0\IMGUI\DX9\IMGUI_DX9.CPP|C:\USERS\NICOB\DESKTOP\FOLDERS\KICKFLIPINTERNALPLZWORK\KICKFLIP 5.0\IMGUI\IMGUI.CPP|C:\USERS\NICOB\DESKTOP\FOLDERS\KICKFLIPINTERNALPLZWORK\KICKFLIP 5.0\IMGUI\IMGUI_DRAW.CPP|C:\USERS\NICOB\DESKTOP\FOLDERS\KICKFLIPINTERNALPLZWORK\KICKFLIP 5.0\INPUT.CPP|C:\USERS\NICOB\DESKTOP\FOLDERS\KICKFLIPINTERNALPLZWORK\KICKFLIP 5.0\IVMODELRENDER.CPP|C:\USERS\NICOB\DESKTOP\FOLDERS\KICKFLIPINTERNALPLZWORK\KICKFLIP 5.0\LEGITBOT.CPP|C:\USERS\NICOB\DESKTOP\FOLDERS\KICKFLIPINTERNALPLZWORK\KICKFLIP 5.0\MAIN.CPP|C:\USERS\NICOB\DESKTOP\FOLDERS\KICKFLIPINTERNALPLZWORK\KICKFLIP 5.0\MATH.CPP|C:\USERS\NICOB\DESKTOP\FOLDERS\KICKFLIPINTERNALPLZWORK\KICKFLIP 5.0\MOVEFIX.CPP|C:\USERS\NICOB\DESKTOP\FOLDERS\KICKFLIPINTERNALPLZWORK\KICKFLIP 5.0\NETVARMANAGER.CPP|C:\USERS\NICOB\DESKTOP\FOLDERS\KICKFLIPINTERNALPLZWORK\KICKFLIP 5.0\OFFSETMANAGER.CPP|C:\USERS\NICOB\DESKTOP\FOLDERS\KICKFLIPINTERNALPLZWORK\KICKFLIP 5.0\OVERRIDEVIEW.CPP|C:\USERS\NICOB\DESKTOP\FOLDERS\KICKFLIPINTERNALPLZWORK\KICKFLIP 5.0\PAINTTRAVERSE.CPP|C:\USERS\NICOB\DESKTOP\FOLDERS\KICKFLIPINTERNALPLZWORK\KICKFLIP 5.0\PLAYSOUND.CPP|C:\USERS\NICOB\DESKTOP\FOLDERS\KICKFLIPINTERNALPLZWORK\KICKFLIP 5.0\RAGEBOT.CPP|C:\USERS\NICOB\DESKTOP\FOLDERS\KICKFLIPINTERNALPLZWORK\KICKFLIP 5.0\RCS.CPP|C:\USERS\NICOB\DESKTOP\FOLDERS\KICKFLIPINTERNALPLZWORK\KICKFLIP 5.0\SETVIEWMODELSEQUENCE.CPP|C:\USERS\NICOB\DESKTOP\FOLDERS\KICKFLIPINTERNALPLZWORK\KICKFLIP 5.0\SKINFUNCTIONS.HPP|C:\USERS\NICOB\DESKTOP\FOLDERS\KICKFLIPINTERNALPLZWORK\KICKFLIP 5.0\SOURCEENGINE\CONVAR.CPP|C:\USERS\NICOB\DESKTOP\FOLDERS\KICKFLIPINTERNALPLZWORK\KICKFLIP 5.0\SOURCEENGINE\CRC.CPP|C:\USERS\NICOB\DESKTOP\FOLDERS\KICKFLIPINTERNALPLZWORK\KICKFLIP 5.0\SOURCEENGINE\SDK.CPP|C:\USERS\NICOB\DESKTOP\FOLDERS\KICKFLIPINTERNALPLZWORK\KICKFLIP 5.0\SOURCEENGINE\VECTOR.CPP|C:\USERS\NICOB\DESKTOP\FOLDERS\KICKFLIPINTERNALPLZWORK\KICKFLIP 5.0\SOURCEENGINE\VECTOR2D.CPP|C:\USERS\NICOB\DESKTOP\FOLDERS\KICKFLIPINTERNALPLZWORK\KICKFLIP 5.0\SOURCEENGINE\VECTOR4D.CPP|C:\USERS\NICOB\DESKTOP\FOLDERS\KICKFLIPINTERNALPLZWORK\KICKFLIP 5.0\SOURCEENGINE\VMATRIX.CPP|C:\USERS\NICOB\DESKTOP\FOLDERS\KICKFLIPINTERNALPLZWORK\KICKFLIP 5.0\SPOOFEDCONVAR.CPP|C:\USERS\NICOB\DESKTOP\FOLDERS\KICKFLIPINTERNALPLZWORK\KICKFLIP 5.0\TRIGGER.CPP|C:\USERS\NICOB\DESKTOP\FOLDERS\KICKFLIPINTERNALPLZWORK\KICKFLIP 5.0\WNDPROC.CPP|C:\USERS\NICOB\DESKTOP\FOLDERS\KICKFLIPINTERNALPLZWORK\KICKFLIP 5.0\WORLDESP.CPP
C:\USERS\NICOB\DESKTOP\FOLDERS\KICKFLIPINTERNALPLZWORK\KICKFLIP 5.0\RELEASE!\VC140.PDB
C:\USERS\NICOB\DESKTOP\FOLDERS\KICKFLIPINTERNALPLZWORK\KICKFLIP 5.0\RELEASE!\VC140.IDB
C:\USERS\NICOB\DESKTOP\FOLDERS\KICKFLIPINTERNALPLZWORK\KICKFLIP 5.0\RELEASE!\MOVEFIX.OBJ
C:\USERS\NICOB\DESKTOP\FOLDERS\KICKFLIPINTERNALPLZWORK\KICKFLIP 5.0\RELEASE!\NETVARMANAGER.OBJ
C:\USERS\NICOB\DESKTOP\FOLDERS\KICKFLIPINTERNALPLZWORK\KICKFLIP 5.0\RELEASE!\OFFSETMANAGER.OBJ
C:\USERS\NICOB\DESKTOP\FOLDERS\KICKFLIPINTERNALPLZWORK\KICKFLIP 5.0\RELEASE!\OVERRIDEVIEW.OBJ
C:\USERS\NICOB\DESKTOP\FOLDERS\KICKFLIPINTERNALPLZWORK\KICKFLIP 5.0\RELEASE!\PAINTTRAVERSE.OBJ
C:\USERS\NICOB\DESKTOP\FOLDERS\KICKFLIPINTERNALPLZWORK\KICKFLIP 5.0\RELEASE!\PLAYSOUND.OBJ
C:\USERS\NICOB\DESKTOP\FOLDERS\KICKFLIPINTERNALPLZWORK\KICKFLIP 5.0\RELEASE!\RCS.OBJ
C:\USERS\NICOB\DESKTOP\FOLDERS\KICKFLIPINTERNALPLZWORK\KICKFLIP 5.0\RELEASE!\SETVIEWMODELSEQUENCE.OBJ
C:\USERS\NICOB\DESKTOP\FOLDERS\KICKFLIPINTERNALPLZWORK\KICKFLIP 5.0\RELEASE!\SKINFUNCTIONS.OBJ
C:\USERS\NICOB\DESKTOP\FOLDERS\KICKFLIPINTERNALPLZWORK\KICKFLIP 5.0\RELEASE!\CONVAR.OBJ
C:\USERS\NICOB\DESKTOP\FOLDERS\KICKFLIPINTERNALPLZWORK\KICKFLIP 5.0\RELEASE!\CRC.OBJ
C:\USERS\NICOB\DESKTOP\FOLDERS\KICKFLIPINTERNALPLZWORK\KICKFLIP 5.0\RELEASE!\SDK.OBJ
C:\USERS\NICOB\DESKTOP\FOLDERS\KICKFLIPINTERNALPLZWORK\KICKFLIP 5.0\RELEASE!\VECTOR.OBJ
C:\USERS\NICOB\DESKTOP\FOLDERS\KICKFLIPINTERNALPLZWORK\KICKFLIP 5.0\RELEASE!\VECTOR2D.OBJ
C:\USERS\NICOB\DESKTOP\FOLDERS\KICKFLIPINTERNALPLZWORK\KICKFLIP 5.0\RELEASE!\VECTOR4D.OBJ
C:\USERS\NICOB\DESKTOP\FOLDERS\KICKFLIPINTERNALPLZWORK\KICKFLIP 5.0\RELEASE!\VMATRIX.OBJ
C:\USERS\NICOB\DESKTOP\FOLDERS\KICKFLIPINTERNALPLZWORK\KICKFLIP 5.0\RELEASE!\SPOOFEDCONVAR.OBJ
C:\USERS\NICOB\DESKTOP\FOLDERS\KICKFLIPINTERNALPLZWORK\KICKFLIP 5.0\RELEASE!\TRIGGER.OBJ
C:\USERS\NICOB\DESKTOP\FOLDERS\KICKFLIPINTERNALPLZWORK\KICKFLIP 5.0\RELEASE!\WNDPROC.OBJ
C:\USERS\NICOB\DESKTOP\FOLDERS\KICKFLIPINTERNALPLZWORK\KICKFLIP 5.0\RELEASE!\WORLDESP.OBJ
C:\USERS\NICOB\DESKTOP\FOLDERS\KICKFLIPINTERNALPLZWORK\KICKFLIP 5.0\RELEASE!\CLRRENDER.OBJ
C:\USERS\NICOB\DESKTOP\FOLDERS\KICKFLIPINTERNALPLZWORK\KICKFLIP 5.0\RELEASE!\CREATEMOVE.OBJ
C:\USERS\NICOB\DESKTOP\FOLDERS\KICKFLIPINTERNALPLZWORK\KICKFLIP 5.0\RELEASE!\D3DENDSCENE.OBJ
C:\USERS\NICOB\DESKTOP\FOLDERS\KICKFLIPINTERNALPLZWORK\KICKFLIP 5.0\RELEASE!\D3DRESET.OBJ
C:\USERS\NICOB\DESKTOP\FOLDERS\KICKFLIPINTERNALPLZWORK\KICKFLIP 5.0\RELEASE!\DRAW.OBJ
C:\USERS\NICOB\DESKTOP\FOLDERS\KICKFLIPINTERNALPLZWORK\KICKFLIP 5.0\RELEASE!\DRAWMODELEXECUTE.OBJ
C:\USERS\NICOB\DESKTOP\FOLDERS\KICKFLIPINTERNALPLZWORK\KICKFLIP 5.0\RELEASE!\ESP.OBJ
C:\USERS\NICOB\DESKTOP\FOLDERS\KICKFLIPINTERNALPLZWORK\KICKFLIP 5.0\RELEASE!\FIREEVENTCLIENTSIDE.OBJ
C:\USERS\NICOB\DESKTOP\FOLDERS\KICKFLIPINTERNALPLZWORK\KICKFLIP 5.0\RELEASE!\FRAMESTAGENOTIFY.OBJ
C:\USERS\NICOB\DESKTOP\FOLDERS\KICKFLIPINTERNALPLZWORK\KICKFLIP 5.0\RELEASE!\GLOW.OBJ
C:\USERS\NICOB\DESKTOP\FOLDERS\KICKFLIPINTERNALPLZWORK\KICKFLIP 5.0\RELEASE!\HOOKS.OBJ
C:\USERS\NICOB\DESKTOP\FOLDERS\KICKFLIPINTERNALPLZWORK\KICKFLIP 5.0\RELEASE!\IINPUTSYSTEM.OBJ
C:\USERS\NICOB\DESKTOP\FOLDERS\KICKFLIPINTERNALPLZWORK\KICKFLIP 5.0\RELEASE!\IMGUI_DX9.OBJ
C:\USERS\NICOB\DESKTOP\FOLDERS\KICKFLIPINTERNALPLZWORK\KICKFLIP 5.0\RELEASE!\IMGUI.OBJ
C:\USERS\NICOB\DESKTOP\FOLDERS\KICKFLIPINTERNALPLZWORK\KICKFLIP 5.0\RELEASE!\IMGUI_DRAW.OBJ
C:\USERS\NICOB\DESKTOP\FOLDERS\KICKFLIPINTERNALPLZWORK\KICKFLIP 5.0\RELEASE!\INPUT.OBJ
C:\USERS\NICOB\DESKTOP\FOLDERS\KICKFLIPINTERNALPLZWORK\KICKFLIP 5.0\RELEASE!\IMATERIALSYSTEM.OBJ
C:\USERS\NICOB\DESKTOP\FOLDERS\KICKFLIPINTERNALPLZWORK\KICKFLIP 5.0\RELEASE!\IVMODELRENDER.OBJ
C:\USERS\NICOB\DESKTOP\FOLDERS\KICKFLIPINTERNALPLZWORK\KICKFLIP 5.0\RELEASE!\MAIN.OBJ
C:\USERS\NICOB\DESKTOP\FOLDERS\KICKFLIPINTERNALPLZWORK\KICKFLIP 5.0\RELEASE!\MATH.OBJ
C:\USERS\NICOB\DESKTOP\FOLDERS\KICKFLIPINTERNALPLZWORK\KICKFLIP 5.0\RELEASE!\D3DDRAW.OBJ
C:\USERS\NICOB\DESKTOP\FOLDERS\KICKFLIPINTERNALPLZWORK\KICKFLIP 5.0\RELEASE!\LEGITBOT.OBJ
C:\USERS\NICOB\DESKTOP\FOLDERS\KICKFLIPINTERNALPLZWORK\KICKFLIP 5.0\RELEASE!\RAGEBOT.OBJ
C:\USERS\NICOB\DESKTOP\FOLDERS\KICKFLIPINTERNALPLZWORK\KICKFLIP 5.0\RELEASE!\ANTIAIM.OBJ
C:\USERS\NICOB\DESKTOP\FOLDERS\KICKFLIPINTERNALPLZWORK\KICKFLIP 5.0\RELEASE!\BOXESP.OBJ
^C:\USERS\NICOB\DESKTOP\FOLDERS\KICKFLIPINTERNALPLZWORK\KICKFLIP 5.0\D3DDRAW.CPP
C:\USERS\NICOB\DESKTOP\FOLDERS\KICKFLIPINTERNALPLZWORK\KICKFLIP 5.0\RELEASE!\VC140.PDB
^C:\USERS\NICOB\DESKTOP\FOLDERS\KICKFLIPINTERNALPLZWORK\KICKFLIP 5.0\LEGITBOT.CPP
C:\USERS\NICOB\DESKTOP\FOLDERS\KICKFLIPINTERNALPLZWORK\KICKFLIP 5.0\RELEASE!\VC140.PDB
^C:\USERS\NICOB\DESKTOP\FOLDERS\KICKFLIPINTERNALPLZWORK\KICKFLIP 5.0\RAGEBOT.CPP
C:\USERS\NICOB\DESKTOP\FOLDERS\KICKFLIPINTERNALPLZWORK\KICKFLIP 5.0\RELEASE!\VC140.PDB
^C:\USERS\NICOB\DESKTOP\FOLDERS\KICKFLIPINTERNALPLZWORK\KICKFLIP 5.0\ANTIAIM.CPP
C:\USERS\NICOB\DESKTOP\FOLDERS\KICKFLIPINTERNALPLZWORK\KICKFLIP 5.0\RELEASE!\VC140.PDB
^C:\USERS\NICOB\DESKTOP\FOLDERS\KICKFLIPINTERNALPLZWORK\KICKFLIP 5.0\BOXESP.CPP
C:\USERS\NICOB\DESKTOP\FOLDERS\KICKFLIPINTERNALPLZWORK\KICKFLIP 5.0\RELEASE!\VC140.PDB
^C:\USERS\NICOB\DESKTOP\FOLDERS\KICKFLIPINTERNALPLZWORK\KICKFLIP 5.0\CLRRENDER.CPP
C:\USERS\NICOB\DESKTOP\FOLDERS\KICKFLIPINTERNALPLZWORK\KICKFLIP 5.0\RELEASE!\VC140.PDB
^C:\USERS\NICOB\DESKTOP\FOLDERS\KICKFLIPINTERNALPLZWORK\KICKFLIP 5.0\CREATEMOVE.CPP
C:\USERS\NICOB\DESKTOP\FOLDERS\KICKFLIPINTERNALPLZWORK\KICKFLIP 5.0\RELEASE!\VC140.PDB
^C:\USERS\NICOB\DESKTOP\FOLDERS\KICKFLIPINTERNALPLZWORK\KICKFLIP 5.0\D3DENDSCENE.CPP
C:\USERS\NICOB\DESKTOP\FOLDERS\KICKFLIPINTERNALPLZWORK\KICKFLIP 5.0\RELEASE!\VC140.PDB
^C:\USERS\NICOB\DESKTOP\FOLDERS\KICKFLIPINTERNALPLZWORK\KICKFLIP 5.0\D3DRESET.CPP
C:\USERS\NICOB\DESKTOP\FOLDERS\KICKFLIPINTERNALPLZWORK\KICKFLIP 5.0\RELEASE!\VC140.PDB
^C:\USERS\NICOB\DESKTOP\FOLDERS\KICKFLIPINTERNALPLZWORK\KICKFLIP 5.0\DRAW.CPP
C:\USERS\NICOB\DESKTOP\FOLDERS\KICKFLIPINTERNALPLZWORK\KICKFLIP 5.0\RELEASE!\VC140.PDB
^C:\USERS\NICOB\DESKTOP\FOLDERS\KICKFLIPINTERNALPLZWORK\KICKFLIP 5.0\DRAWMODELEXECUTE.CPP
C:\USERS\NICOB\DESKTOP\FOLDERS\KICKFLIPINTERNALPLZWORK\KICKFLIP 5.0\RELEASE!\VC140.PDB
^C:\USERS\NICOB\DESKTOP\FOLDERS\KICKFLIPINTERNALPLZWORK\KICKFLIP 5.0\ESP.CPP
C:\USERS\NICOB\DESKTOP\FOLDERS\KICKFLIPINTERNALPLZWORK\KICKFLIP 5.0\RELEASE!\VC140.PDB
^C:\USERS\NICOB\DESKTOP\FOLDERS\KICKFLIPINTERNALPLZWORK\KICKFLIP 5.0\FIREEVENTCLIENTSIDE.CPP
C:\USERS\NICOB\DESKTOP\FOLDERS\KICKFLIPINTERNALPLZWORK\KICKFLIP 5.0\RELEASE!\VC140.PDB
^C:\USERS\NICOB\DESKTOP\FOLDERS\KICKFLIPINTERNALPLZWORK\KICKFLIP 5.0\FRAMESTAGENOTIFY.CPP
C:\USERS\NICOB\DESKTOP\FOLDERS\KICKFLIPINTERNALPLZWORK\KICKFLIP 5.0\RELEASE!\VC140.PDB
^C:\USERS\NICOB\DESKTOP\FOLDERS\KICKFLIPINTERNALPLZWORK\KICKFLIP 5.0\GLOW.CPP
C:\USERS\NICOB\DESKTOP\FOLDERS\KICKFLIPINTERNALPLZWORK\KICKFLIP 5.0\RELEASE!\VC140.PDB
^C:\USERS\NICOB\DESKTOP\FOLDERS\KICKFLIPINTERNALPLZWORK\KICKFLIP 5.0\HOOKS.CPP
C:\USERS\NICOB\DESKTOP\FOLDERS\KICKFLIPINTERNALPLZWORK\KICKFLIP 5.0\RELEASE!\VC140.PDB
^C:\USERS\NICOB\DESKTOP\FOLDERS\KICKFLIPINTERNALPLZWORK\KICKFLIP 5.0\IINPUTSYSTEM.CPP
C:\USERS\NICOB\DESKTOP\FOLDERS\KICKFLIPINTERNALPLZWORK\KICKFLIP 5.0\RELEASE!\VC140.PDB
^C:\USERS\NICOB\DESKTOP\FOLDERS\KICKFLIPINTERNALPLZWORK\KICKFLIP 5.0\IMGUI\DX9\IMGUI_DX9.CPP
C:\USERS\NICOB\DESKTOP\FOLDERS\KICKFLIPINTERNALPLZWORK\KICKFLIP 5.0\RELEASE!\VC140.PDB
^C:\USERS\NICOB\DESKTOP\FOLDERS\KICKFLIPINTERNALPLZWORK\KICKFLIP 5.0\IMGUI\IMGUI.CPP
C:\USERS\NICOB\DESKTOP\FOLDERS\KICKFLIPINTERNALPLZWORK\KICKFLIP 5.0\RELEASE!\VC140.PDB
^C:\USERS\NICOB\DESKTOP\FOLDERS\KICKFLIPINTERNALPLZWORK\KICKFLIP 5.0\IMGUI\IMGUI_DRAW.CPP
C:\USERS\NICOB\DESKTOP\FOLDERS\KICKFLIPINTERNALPLZWORK\KICKFLIP 5.0\RELEASE!\VC140.PDB
^C:\USERS\NICOB\DESKTOP\FOLDERS\KICKFLIPINTERNALPLZWORK\KICKFLIP 5.0\INPUT.CPP
C:\USERS\NICOB\DESKTOP\FOLDERS\KICKFLIPINTERNALPLZWORK\KICKFLIP 5.0\RELEASE!\VC140.PDB
^C:\USERS\NICOB\DESKTOP\FOLDERS\KICKFLIPINTERNALPLZWORK\KICKFLIP 5.0\IMATERIALSYSTEM.CPP
C:\USERS\NICOB\DESKTOP\FOLDERS\KICKFLIPINTERNALPLZWORK\KICKFLIP 5.0\RELEASE!\VC140.PDB
^C:\USERS\NICOB\DESKTOP\FOLDERS\KICKFLIPINTERNALPLZWORK\KICKFLIP 5.0\IVMODELRENDER.CPP
C:\USERS\NICOB\DESKTOP\FOLDERS\KICKFLIPINTERNALPLZWORK\KICKFLIP 5.0\RELEASE!\VC140.PDB
^C:\USERS\NICOB\DESKTOP\FOLDERS\KICKFLIPINTERNALPLZWORK\KICKFLIP 5.0\MAIN.CPP
C:\USERS\NICOB\DESKTOP\FOLDERS\KICKFLIPINTERNALPLZWORK\KICKFLIP 5.0\RELEASE!\VC140.PDB
^C:\USERS\NICOB\DESKTOP\FOLDERS\KICKFLIPINTERNALPLZWORK\KICKFLIP 5.0\MATH.CPP
C:\USERS\NICOB\DESKTOP\FOLDERS\KICKFLIPINTERNALPLZWORK\KICKFLIP 5.0\RELEASE!\VC140.PDB
^C:\USERS\NICOB\DESKTOP\FOLDERS\KICKFLIPINTERNALPLZWORK\KICKFLIP 5.0\MOVEFIX.CPP
C:\USERS\NICOB\DESKTOP\FOLDERS\KICKFLIPINTERNALPLZWORK\KICKFLIP 5.0\RELEASE!\VC140.PDB
^C:\USERS\NICOB\DESKTOP\FOLDERS\KICKFLIPINTERNALPLZWORK\KICKFLIP 5.0\NETVARMANAGER.CPP
C:\USERS\NICOB\DESKTOP\FOLDERS\KICKFLIPINTERNALPLZWORK\KICKFLIP 5.0\RELEASE!\VC140.PDB
^C:\USERS\NICOB\DESKTOP\FOLDERS\KICKFLIPINTERNALPLZWORK\KICKFLIP 5.0\OFFSETMANAGER.CPP
C:\USERS\NICOB\DESKTOP\FOLDERS\KICKFLIPINTERNALPLZWORK\KICKFLIP 5.0\RELEASE!\VC140.PDB
^C:\USERS\NICOB\DESKTOP\FOLDERS\KICKFLIPINTERNALPLZWORK\KICKFLIP 5.0\OVERRIDEVIEW.CPP
C:\USERS\NICOB\DESKTOP\FOLDERS\KICKFLIPINTERNALPLZWORK\KICKFLIP 5.0\RELEASE!\VC140.PDB
^C:\USERS\NICOB\DESKTOP\FOLDERS\KICKFLIPINTERNALPLZWORK\KICKFLIP 5.0\PAINTTRAVERSE.CPP
C:\USERS\NICOB\DESKTOP\FOLDERS\KICKFLIPINTERNALPLZWORK\KICKFLIP 5.0\RELEASE!\VC140.PDB
^C:\USERS\NICOB\DESKTOP\FOLDERS\KICKFLIPINTERNALPLZWORK\KICKFLIP 5.0\PLAYSOUND.CPP
C:\USERS\NICOB\DESKTOP\FOLDERS\KICKFLIPINTERNALPLZWORK\KICKFLIP 5.0\RELEASE!\VC140.PDB
^C:\USERS\NICOB\DESKTOP\FOLDERS\KICKFLIPINTERNALPLZWORK\KICKFLIP 5.0\RCS.CPP
C:\USERS\NICOB\DESKTOP\FOLDERS\KICKFLIPINTERNALPLZWORK\KICKFLIP 5.0\RELEASE!\VC140.PDB
^C:\USERS\NICOB\DESKTOP\FOLDERS\KICKFLIPINTERNALPLZWORK\KICKFLIP 5.0\SETVIEWMODELSEQUENCE.CPP
C:\USERS\NICOB\DESKTOP\FOLDERS\KICKFLIPINTERNALPLZWORK\KICKFLIP 5.0\RELEASE!\VC140.PDB
^C:\USERS\NICOB\DESKTOP\FOLDERS\KICKFLIPINTERNALPLZWORK\KICKFLIP 5.0\SKINFUNCTIONS.HPP
C:\USERS\NICOB\DESKTOP\FOLDERS\KICKFLIPINTERNALPLZWORK\KICKFLIP 5.0\RELEASE!\VC140.PDB
^C:\USERS\NICOB\DESKTOP\FOLDERS\KICKFLIPINTERNALPLZWORK\KICKFLIP 5.0\SOURCEENGINE\CONVAR.CPP
C:\USERS\NICOB\DESKTOP\FOLDERS\KICKFLIPINTERNALPLZWORK\KICKFLIP 5.0\RELEASE!\VC140.PDB
^C:\USERS\NICOB\DESKTOP\FOLDERS\KICKFLIPINTERNALPLZWORK\KICKFLIP 5.0\SOURCEENGINE\CRC.CPP
C:\USERS\NICOB\DESKTOP\FOLDERS\KICKFLIPINTERNALPLZWORK\KICKFLIP 5.0\RELEASE!\VC140.PDB
^C:\USERS\NICOB\DESKTOP\FOLDERS\KICKFLIPINTERNALPLZWORK\KICKFLIP 5.0\SOURCEENGINE\SDK.CPP
C:\USERS\NICOB\DESKTOP\FOLDERS\KICKFLIPINTERNALPLZWORK\KICKFLIP 5.0\RELEASE!\VC140.PDB
^C:\USERS\NICOB\DESKTOP\FOLDERS\KICKFLIPINTERNALPLZWORK\KICKFLIP 5.0\SOURCEENGINE\VECTOR.CPP
C:\USERS\NICOB\DESKTOP\FOLDERS\KICKFLIPINTERNALPLZWORK\KICKFLIP 5.0\RELEASE!\VC140.PDB
^C:\USERS\NICOB\DESKTOP\FOLDERS\KICKFLIPINTERNALPLZWORK\KICKFLIP 5.0\SOURCEENGINE\VECTOR2D.CPP
C:\USERS\NICOB\DESKTOP\FOLDERS\KICKFLIPINTERNALPLZWORK\KICKFLIP 5.0\RELEASE!\VC140.PDB
^C:\USERS\NICOB\DESKTOP\FOLDERS\KICKFLIPINTERNALPLZWORK\KICKFLIP 5.0\SOURCEENGINE\VECTOR4D.CPP
C:\USERS\NICOB\DESKTOP\FOLDERS\KICKFLIPINTERNALPLZWORK\KICKFLIP 5.0\RELEASE!\VC140.PDB
^C:\USERS\NICOB\DESKTOP\FOLDERS\KICKFLIPINTERNALPLZWORK\KICKFLIP 5.0\SOURCEENGINE\VMATRIX.CPP
C:\USERS\NICOB\DESKTOP\FOLDERS\KICKFLIPINTERNALPLZWORK\KICKFLIP 5.0\RELEASE!\VC140.PDB
^C:\USERS\NICOB\DESKTOP\FOLDERS\KICKFLIPINTERNALPLZWORK\KICKFLIP 5.0\SPOOFEDCONVAR.CPP
C:\USERS\NICOB\DESKTOP\FOLDERS\KICKFLIPINTERNALPLZWORK\KICKFLIP 5.0\RELEASE!\VC140.PDB
^C:\USERS\NICOB\DESKTOP\FOLDERS\KICKFLIPINTERNALPLZWORK\KICKFLIP 5.0\TRIGGER.CPP
C:\USERS\NICOB\DESKTOP\FOLDERS\KICKFLIPINTERNALPLZWORK\KICKFLIP 5.0\RELEASE!\VC140.PDB
^C:\USERS\NICOB\DESKTOP\FOLDERS\KICKFLIPINTERNALPLZWORK\KICKFLIP 5.0\WNDPROC.CPP
C:\USERS\NICOB\DESKTOP\FOLDERS\KICKFLIPINTERNALPLZWORK\KICKFLIP 5.0\RELEASE!\VC140.PDB
^C:\USERS\NICOB\DESKTOP\FOLDERS\KICKFLIPINTERNALPLZWORK\KICKFLIP 5.0\WORLDESP.CPP
C:\USERS\NICOB\DESKTOP\FOLDERS\KICKFLIPINTERNALPLZWORK\KICKFLIP 5.0\RELEASE!\VC140.PDB
